<?xml version="1.0" encoding="UTF-8"?>
<svg xmlns="http://www.w3.org/2000/svg" xmlns:xlink="http://www.w3.org/1999/xlink" width="30pt" height="30pt" viewBox="0 0 30 30" version="1.1">
<g id="surface1">
<path style=" stroke:none;fill-rule:nonzero;fill:rgb(0%,60.392157%,85.490196%);fill-opacity:1;" d="M 15 0 C 9.476562 0 5 4.476562 5 10 C 5 11.777344 5.476562 13.4375 6.289062 14.882812 C 6.425781 15.121094 6.566406 15.359375 6.71875 15.585938 L 15 30 L 23.28125 15.585938 C 23.410156 15.398438 23.519531 15.199219 23.632812 15 L 23.710938 14.882812 C 24.523438 13.4375 25 11.777344 25 10 C 25 4.476562 20.523438 0 15 0 Z M 15 5 C 17.761719 5 20 7.238281 20 10 C 20 12.761719 17.761719 15 15 15 C 12.238281 15 10 12.761719 10 10 C 10 7.238281 12.238281 5 15 5 Z M 15 5 "/>
<path style=" stroke:none;fill-rule:nonzero;fill:rgb(100%,58.039216%,9.803922%);fill-opacity:1;" d="M 15 3.75 C 11.546875 3.75 8.75 6.546875 8.75 10 C 8.75 13.453125 11.546875 16.25 15 16.25 C 18.453125 16.25 21.25 13.453125 21.25 10 C 21.25 6.546875 18.453125 3.75 15 3.75 Z M 15 6.25 C 17.070312 6.25 18.75 7.929688 18.75 10 C 18.75 12.070312 17.070312 13.75 15 13.75 C 12.929688 13.75 11.25 12.070312 11.25 10 C 11.25 7.929688 12.929688 6.25 15 6.25 Z M 15 6.25 "/>
</g>
</svg>
